<svg width="25" height="25" viewBox="0 0 25 25" fill="none" xmlns="http://www.w3.org/2000/svg">
<path d="M9.8884 3.50602C9.84376 3.7962 9.82143 4.08637 9.75447 4.37655C9.64286 4.86762 9.70983 5.33637 9.97768 5.76048C12.2768 9.4212 15.2455 12.3899 18.8393 14.756C19.4866 15.1801 20.1116 15.2917 20.8705 15.1132C21.7857 14.8899 22.6563 15.1355 23.3705 15.7158C24.375 16.5194 24.7545 17.6132 24.4643 18.8632C24.1518 20.2248 23.2813 21.1176 21.9196 21.4748C21.6518 21.5417 21.5179 21.631 21.4509 21.9212C21.1384 23.3498 19.9107 24.4435 18.4375 24.5328C16.2054 24.6891 14.6429 22.8587 15.0893 20.7382C15.2455 20.0462 15.1339 19.4882 14.7545 18.9078C12.433 15.2917 9.46429 12.323 5.80358 10.0239C5.33483 9.7337 4.84376 9.64441 4.28572 9.77834C2.18751 10.2471 0.491077 8.97477 0.357149 6.83191C0.290184 5.91673 0.647327 5.09084 1.29465 4.42119C1.80804 3.88548 2.41072 3.52834 3.14733 3.39441C3.37054 3.34977 3.37054 3.19352 3.41518 3.03727C3.75001 1.56405 4.91072 0.537267 6.38393 0.358695C8.25893 0.157802 9.86608 1.58637 9.8884 3.50602Z" fill="#F4C1E1"/>
</svg>
