<svg width="33" height="32" viewBox="0 0 33 32" fill="none" xmlns="http://www.w3.org/2000/svg">
<g clip-path="url(#clip0_1352_14446)">
<path d="M9.36621 18.315C10.0519 17.6578 10.7091 17.0578 11.3948 16.4292C12.2234 17.3435 13.1091 18.2864 14.1376 19.3721C16.2805 15.515 18.2805 11.915 20.3376 8.25781C21.1662 8.74353 21.9376 9.20067 22.7662 9.65781C21.6234 11.715 20.5091 13.7435 19.3948 15.7435C18.2519 17.8292 17.0805 19.915 15.9091 22.0007C15.2805 23.115 14.3376 23.2578 13.4234 22.3721C12.0519 21.0292 10.7376 19.6864 9.36621 18.315Z" fill="black"/>
<path d="M16.0238 31.7417C7.42383 31.7417 0.423828 24.7417 0.423828 16.1417C0.423828 7.54174 7.42383 0.570312 16.0238 0.570312C24.6238 0.570312 31.6238 7.57031 31.6238 16.1703C31.6238 24.7703 24.6238 31.7417 16.0238 31.7417ZM16.0238 3.39888C8.96669 3.39888 3.2524 9.14174 3.2524 16.1703C3.2524 23.1989 8.99526 28.9417 16.0238 28.9417C23.0524 28.9417 28.7953 23.1989 28.7953 16.1703C28.7953 9.14174 23.081 3.39888 16.0238 3.39888Z" fill="black"/>
</g>
<defs>
<clipPath id="clip0_1352_14446">
<rect width="32" height="32" fill="white" transform="translate(0.0234375)"/>
</clipPath>
</defs>
</svg>
