<svg width="12" height="11" viewBox="0 0 12 11" fill="none" xmlns="http://www.w3.org/2000/svg">
<path d="M2.90381 0.290187C3.88991 0.290187 4.53635 0.587043 5.07323 1.12367C5.40193 1.45478 5.71967 1.7973 5.9388 2.21975C6.02646 2.3796 6.05933 2.24259 6.10315 2.17408C6.49759 1.5347 6.97969 0.963822 7.63709 0.609878C9.13815 -0.18935 10.8583 0.598461 11.4938 2.1855C11.8992 3.20166 11.7787 4.19499 11.3514 5.1769C11.0336 5.90762 10.5954 6.547 10.1023 7.15213C8.96284 8.53366 7.60422 9.65258 6.15794 10.6573C6.04837 10.7258 5.98263 10.7372 5.87306 10.6573C4.63496 9.81242 3.47356 8.86476 2.44363 7.75726C1.72049 6.96945 1.06309 6.12455 0.635781 5.11981C0.175601 4.03514 0.109861 2.93906 0.657694 1.86581C1.15074 0.929569 2.10397 0.278769 2.90381 0.290187Z" fill="black"/>
<path d="M6.00441 11C5.9058 11 5.80719 10.9657 5.70858 10.8972C4.32804 9.94959 3.18855 8.97909 2.24628 7.96293C1.35879 7.00386 0.778087 6.13613 0.394604 5.23414C-0.142272 3.98963 -0.131316 2.8022 0.427474 1.72895C0.942437 0.724208 1.97236 0.00490209 2.88177 0.00490209C2.89272 0.00490209 2.89272 0.00490209 2.90368 0.00490209C3.90073 0.00490209 4.62387 0.290341 5.25936 0.918306C5.52232 1.18091 5.78528 1.45493 6.00441 1.79746C6.45364 1.1124 6.93573 0.655702 7.50547 0.347429C8.26148 -0.0521857 9.10515 -0.109273 9.89403 0.187583C10.7158 0.507274 11.3951 1.19233 11.7347 2.07148C12.1292 3.07622 12.0854 4.13805 11.5923 5.27981C11.2965 5.96486 10.8911 6.61566 10.2994 7.32355C9.28045 8.56806 7.99852 9.6984 6.28929 10.8858C6.20163 10.9657 6.10302 11 6.00441 11ZM2.88177 0.575779C2.18054 0.575779 1.33688 1.18091 0.909567 2.00297C0.427474 2.92779 0.427474 3.9097 0.887654 5.00579C1.24922 5.85069 1.7861 6.6385 2.64072 7.56332C3.56108 8.55665 4.65674 9.49288 6.00441 10.4177C7.66982 9.26453 8.90793 8.15703 9.89403 6.95819C10.4419 6.28455 10.8253 5.67942 11.0993 5.05146C11.5375 4.0353 11.5814 3.15615 11.2417 2.28841C10.9568 1.55769 10.398 0.986811 9.70776 0.724208C9.07228 0.484439 8.38201 0.530109 7.75748 0.861218C7.2206 1.14666 6.77138 1.61478 6.32216 2.32266C6.32216 2.32266 6.32216 2.33408 6.3112 2.33408C6.27833 2.39117 6.20163 2.56243 6.00441 2.56243C5.91676 2.56243 5.78528 2.52818 5.68667 2.3455C5.46754 1.94589 5.17171 1.61478 4.86492 1.31792C4.339 0.792713 3.74734 0.564362 2.88177 0.564362C2.89272 0.575779 2.88177 0.575779 2.88177 0.575779Z" fill="black"/>
</svg>
