<svg width="26" height="25" viewBox="0 0 26 25" fill="none" xmlns="http://www.w3.org/2000/svg">
<g clip-path="url(#clip0_1013_13993)">
<path d="M21.273 24.5324C21.0721 24.3984 20.8489 24.2868 20.6927 24.1083C20.4025 23.7511 20.4694 23.26 20.8266 22.8806C21.1168 22.5904 21.4069 22.3002 21.7194 21.9654C21.6078 21.9654 21.5186 21.9654 21.4293 21.9654C16.5186 21.9654 11.6078 21.9654 6.69713 21.9654C5.22391 21.9654 4.08552 21.3404 3.32659 20.0681C3.01409 19.5547 2.85784 18.9967 2.8132 18.394C2.8132 18.26 2.8132 18.1038 2.8132 17.9699C2.8132 13.1038 2.8132 8.2154 2.8132 3.34933C2.8132 3.26004 2.8132 3.17076 2.8132 3.03683C2.74623 3.08147 2.70159 3.12612 2.65695 3.14844C2.41141 3.37165 2.1882 3.61719 1.94266 3.8404C1.33998 4.42076 0.581055 4.26451 0.290876 3.46094C0.290876 3.43862 0.268555 3.43862 0.268555 3.41629C0.268555 3.28237 0.268555 3.17076 0.268555 3.03683C0.424805 2.81362 0.581055 2.54576 0.759626 2.34487C1.0498 2.01004 1.40695 1.71987 1.69713 1.40737C2.21052 0.893973 2.79088 0.447545 3.5498 0.335938C3.70605 0.335938 3.8623 0.335938 4.01855 0.335938C4.7998 0.447545 5.38016 0.893973 5.89355 1.45201C6.27302 1.85379 6.6748 2.21094 7.05427 2.5904C7.32213 2.85826 7.41141 3.19308 7.27748 3.57254C7.16588 3.90737 6.92034 4.13058 6.5632 4.19754C6.20605 4.26451 5.91588 4.1529 5.67034 3.88504C5.35784 3.57254 5.06766 3.26004 4.75516 2.94754C4.73284 2.96987 4.71052 2.96987 4.6882 2.99219C4.6882 3.05915 4.66588 3.10379 4.66588 3.17076C4.66588 8.14844 4.66588 13.1261 4.66588 18.1261C4.66588 19.3092 5.46945 20.1127 6.65248 20.1127C11.6302 20.1127 16.6078 20.1127 21.5855 20.1127C21.6302 20.1127 21.6971 20.1127 21.7864 20.1127C21.7194 20.0458 21.6971 20.0011 21.6525 19.9565C21.3846 19.6886 21.0944 19.3984 20.8043 19.1306C20.4025 18.7065 20.3802 18.1484 20.7596 17.769C21.1391 17.3895 21.7194 17.3895 22.1212 17.7913C22.6569 18.327 23.1927 18.8627 23.7284 19.3761C24.1078 19.7556 24.2864 20.2467 24.398 20.7824C24.398 20.9386 24.398 21.0949 24.398 21.2511C24.2864 22.0324 23.84 22.5904 23.2819 23.1038C22.9471 23.4163 22.6346 23.7734 22.2775 24.0636C22.0766 24.2422 21.8311 24.3761 21.6078 24.5547C21.5186 24.5324 21.4069 24.5324 21.273 24.5324Z" fill="#EDBED9"/>
<path d="M24.4428 15.6496C24.4205 15.7165 24.3758 15.7835 24.3535 15.8504C24.1749 16.2299 23.7508 16.4754 23.3491 16.4085C22.9249 16.3415 22.5901 15.9844 22.5455 15.5603C22.5455 15.4487 22.5455 15.3594 22.5455 15.2478C22.5455 11.2969 22.5455 7.32366 22.5455 3.37277C22.5455 2.59152 22.1883 2.23437 21.4071 2.23437C17.4562 2.23437 13.483 2.23437 9.53209 2.23437C9.33119 2.23437 9.1303 2.21205 8.95173 2.14509C8.59459 1.98884 8.41602 1.69866 8.41602 1.29688C8.41602 0.917411 8.61691 0.627232 8.95173 0.448661C9.01869 0.404018 9.08566 0.381696 9.17494 0.359375C13.416 0.359375 17.6794 0.359375 21.9205 0.359375C21.9651 0.381696 21.9874 0.381696 22.0321 0.404018C22.8133 0.537946 23.4383 0.917411 23.9071 1.56473C24.1973 1.96652 24.3312 2.41295 24.4428 2.8817C24.4428 7.12277 24.4428 11.3862 24.4428 15.6496Z" fill="#EDBED9"/>
<path d="M6.58594 12.6322C6.58594 11.6947 6.58594 10.7572 6.58594 9.81973C6.58594 8.90455 7.30022 8.50276 8.10379 8.92687C8.17076 8.94919 8.26004 8.94919 8.32701 8.92687C9.17522 8.65901 9.9788 8.7483 10.7154 9.26169C10.827 9.35098 10.9163 9.32865 11.0279 9.26169C11.8984 8.68133 12.8136 8.59205 13.7511 9.08312C14.6663 9.57419 15.1127 10.3778 15.1127 11.4269C15.1127 12.7885 15.1127 14.1724 15.1127 15.534C15.1127 15.9804 14.8449 16.3376 14.4654 16.4715C14.0636 16.6054 13.6172 16.4715 13.4163 16.092C13.3047 15.9135 13.26 15.6679 13.2377 15.4447C13.2154 14.1054 13.2377 12.7438 13.2377 11.4045C13.2377 10.8465 12.7467 10.4894 12.2556 10.7126C11.9431 10.8465 11.8092 11.092 11.8092 11.4269C11.8092 12.7438 11.8092 14.0831 11.8092 15.4001C11.8092 15.5117 11.8092 15.6456 11.7868 15.7572C11.6975 16.226 11.2734 16.5608 10.8047 16.5162C10.3359 16.4715 9.95647 16.1144 9.93415 15.6233C9.91183 15.1992 9.93415 14.7974 9.93415 14.3733C9.93415 13.3912 9.93415 12.409 9.93415 11.4269C9.93415 11.0028 9.6663 10.6903 9.26451 10.6679C8.81808 10.6456 8.50558 10.9581 8.50558 11.4492C8.50558 12.7885 8.50558 14.1054 8.50558 15.4447C8.50558 15.5563 8.50558 15.6679 8.48326 15.7795C8.39397 16.2483 7.96987 16.5831 7.4788 16.5385C6.98772 16.4938 6.60826 16.1144 6.60826 15.6233C6.58594 14.7751 6.60826 13.9045 6.60826 13.0563C6.58594 12.9001 6.58594 12.7662 6.58594 12.6322Z" fill="#EDBED9"/>
<path d="M19.3981 9.95465C19.599 9.97697 19.7776 9.97697 19.9338 10.0216C20.3803 10.1332 20.6928 10.535 20.6481 11.0038C20.6035 11.4502 20.2463 11.852 19.7999 11.8743C18.9071 11.8966 18.0142 11.8966 17.099 11.8743C16.6972 11.8743 16.4071 11.6511 16.2731 11.2716C16.1169 10.8475 16.2508 10.5127 16.5633 10.2002C17.0767 9.66447 17.6124 9.10644 18.1035 8.5484C18.3044 8.32519 18.4606 8.03501 18.6392 7.76715C18.6838 7.70019 18.6838 7.54394 18.6392 7.47697C18.5946 7.41001 18.4383 7.34305 18.349 7.36537C18.2597 7.38769 18.1704 7.4993 18.1035 7.58858C18.0588 7.67787 18.0812 7.8118 18.0365 7.90108C17.9026 8.34751 17.4562 8.61537 16.9874 8.57072C16.5633 8.50376 16.2062 8.1243 16.1838 7.67787C16.1392 6.40555 17.3222 5.3118 18.5722 5.46805C19.7329 5.6243 20.4919 6.42787 20.5588 7.58858C20.5812 7.99037 20.4472 8.39215 20.224 8.72697C20.0454 9.03947 19.8222 9.32965 19.6213 9.61983C19.599 9.73144 19.5097 9.84305 19.3981 9.95465Z" fill="#EDBED9"/>
</g>
<defs>
<clipPath id="clip0_1013_13993">
<rect width="25" height="25" fill="white" transform="translate(0.0234375)"/>
</clipPath>
</defs>
</svg>
