<svg width="80" height="80" viewBox="0 0 80 80" fill="none" xmlns="http://www.w3.org/2000/svg">
<path d="M71.4772 41.2819C71.4772 51.4676 71.4772 61.5391 71.4772 71.6891C71.8772 71.6891 72.2343 71.6748 72.5986 71.6891C73.4843 71.7248 73.9629 72.1891 73.97 73.0819C73.9914 74.6891 73.9914 76.3034 73.97 77.9105C73.9557 78.7962 73.47 79.2534 72.5772 79.2891C72.3915 79.2962 72.2057 79.2891 72.02 79.2891C50.5129 79.2891 29.0057 79.2891 7.4986 79.2891C5.88431 79.2891 5.56288 78.9676 5.56288 77.3462C5.56288 76.0534 5.56288 74.7605 5.56288 73.4676C5.56288 72.0676 5.93431 71.6962 7.34145 71.6891C7.5486 71.6891 7.76288 71.6891 8.03431 71.6891C8.03431 61.5748 8.03431 51.4819 8.03431 41.3248C7.7986 41.3105 7.54145 41.2891 7.29145 41.2891C5.4986 41.2891 3.70574 41.2819 1.90574 41.2891C1.29145 41.2891 0.83431 41.0462 0.591453 40.4676C0.362882 39.9034 0.548596 39.4391 0.948596 39.0319C1.0986 38.8819 1.2486 38.7319 1.3986 38.5819C13.7343 26.2462 26.0629 13.9176 38.3986 1.58193C39.5414 0.439071 39.9843 0.439071 41.1414 1.59621C44.7057 5.1605 48.27 8.72478 51.8272 12.2962C52.0272 12.5034 52.17 12.7676 52.3772 13.0605C55.3343 9.21764 59.0557 7.2105 63.6915 7.14621C67.4986 7.08907 70.8057 8.4605 73.5557 11.1105C79.3843 16.7248 79.3772 26.9891 71.9129 32.4962C72.32 32.8819 72.7272 33.2462 73.12 33.6319C74.8272 35.3176 76.5343 37.0105 78.2415 38.6962C78.7415 39.1891 79.2486 39.6748 78.9272 40.4676C78.6057 41.2534 77.9343 41.2962 77.2129 41.2891C75.3272 41.2748 73.4343 41.2819 71.4772 41.2819ZM19.5486 71.6462C19.3129 67.4391 19.4557 63.3534 22.07 59.7962C24.6629 56.2676 28.17 54.3605 32.6129 53.9105C31.02 52.5534 29.9129 51.0391 29.1629 49.2534C29.0843 49.0676 28.7343 48.9034 28.5057 48.8962C26.1129 48.7676 24.3129 47.5034 23.62 45.4176C22.92 43.3034 23.6057 41.1962 25.4343 39.7034C25.6415 39.5391 25.7986 39.2105 25.82 38.9462C25.8986 37.8676 25.8415 36.7819 25.9772 35.7105C26.7343 29.6034 31.4557 24.7105 37.4629 23.7319C43.6129 22.7319 49.62 25.8534 52.3272 31.4391C53.4486 33.7534 53.7843 36.2034 53.7272 38.7462C53.72 39.0748 53.8915 39.5176 54.1415 39.7248C55.92 41.1891 56.6129 43.2891 55.9343 45.3819C55.2557 47.4891 53.4272 48.8176 51.0843 48.8748C50.6415 48.8819 50.4343 49.0248 50.2772 49.4319C49.6343 51.0534 48.62 52.4248 47.32 53.5819C47.22 53.6748 47.1415 53.7891 47.02 53.9319C47.6415 54.0248 48.1986 54.0819 48.7343 54.1962C55.4343 55.5605 60.0057 61.1605 60.0343 68.0105C60.0415 69.2176 60.0343 70.4248 60.0343 71.6462C63.0272 71.6462 65.9415 71.6462 68.87 71.6462C68.8843 71.4962 68.9057 71.3891 68.9057 71.2891C68.9057 61.2105 68.9129 51.1319 68.8914 41.0534C68.8914 40.7391 68.6843 40.3605 68.4557 40.1248C66.9057 38.5391 65.3343 36.9748 63.7415 35.4391C63.47 35.1819 63.0414 34.9891 62.6629 34.9534C55.7986 34.2462 50.62 29.0676 49.9272 22.2248C49.8843 21.8248 49.6915 21.3605 49.4057 21.0748C46.3843 18.0105 43.3414 14.9748 40.2986 11.9391C40.1343 11.7748 39.9557 11.6319 39.77 11.4676C39.62 11.6034 39.4986 11.7034 39.3843 11.8176C29.9343 21.2391 20.4915 30.6819 11.07 40.1391C10.7986 40.4105 10.6557 40.9176 10.6557 41.3105C10.6343 51.1319 10.6343 60.9462 10.6343 70.7605C10.6343 71.0462 10.6343 71.3248 10.6343 71.6462C13.6057 71.6462 16.4986 71.6462 19.5486 71.6462ZM46.0129 56.5176C44.9343 59.6676 42.9057 61.4034 40.1772 61.5462C38.8486 61.6105 37.6129 61.3176 36.4772 60.6248C34.9129 59.6748 33.9986 58.2462 33.4915 56.3034C32.1129 56.6105 30.7415 56.7676 29.4772 57.2248C23.8772 59.2605 20.7843 65.4319 22.1486 71.6248C23.7986 71.6248 25.4415 71.6248 27.1415 71.6248C27.1415 69.0962 27.1415 66.6248 27.1415 64.1391C27.9986 64.1391 28.7986 64.1391 29.6843 64.1391C29.6843 66.6819 29.6843 69.1676 29.6843 71.6462C36.4629 71.6462 43.1486 71.6462 49.9272 71.6462C49.9272 69.1176 49.9272 66.6319 49.9272 64.1462C50.8129 64.1462 51.6129 64.1462 52.47 64.1462C52.47 66.6748 52.47 69.1462 52.47 71.6391C54.17 71.6391 55.8129 71.6391 57.3557 71.6391C57.3557 69.7248 57.5486 67.8391 57.32 66.0034C56.6343 60.6176 51.3914 56.2676 46.0129 56.5176ZM63.8486 9.6105C57.6272 9.58907 52.47 14.6748 52.4415 20.8748C52.4057 27.2105 57.4772 32.3819 63.7486 32.4034C70.0843 32.4248 75.22 27.3534 75.2414 21.0605C75.2557 14.7534 70.17 9.63907 63.8486 9.6105ZM30.9129 41.3034C30.9129 42.7105 30.8772 44.0819 30.92 45.4462C31.0272 48.9891 33.3486 52.1534 36.7057 53.3962C40.0557 54.6319 43.8557 53.6891 46.2772 51.1105C48.9415 48.2605 48.7343 44.7962 48.5843 41.2891C45.12 40.9034 42.1986 39.4676 39.7629 36.9891C37.3129 39.5105 34.37 40.8962 30.9129 41.3034ZM28.3915 38.7319C32.5843 38.9462 35.9843 37.5819 38.6057 34.3891C39.3914 33.4319 40.1415 33.4534 40.9557 34.3962C41.4557 34.9748 41.97 35.5462 42.5486 36.0391C45.0272 38.1248 47.9057 38.9462 51.1557 38.7176C51.3629 34.0105 49.7272 30.2462 45.7129 27.7962C41.7129 25.3534 37.5486 25.4034 33.6057 27.9319C29.7415 30.4034 28.1629 34.1176 28.3915 38.7319ZM5.01288 38.7462C6.06288 38.7462 7.06288 38.7105 8.06288 38.7605C8.6486 38.7891 9.03431 38.5748 9.43431 38.1748C19.12 28.4605 28.82 18.7676 38.52 9.0605C39.5129 8.06764 40.0414 8.06764 41.0414 9.06764C43.8557 11.8819 46.67 14.7034 49.4843 17.5248C49.6843 17.7248 49.8986 17.9176 50.1343 18.1319C50.4057 17.3105 50.6129 16.5176 50.9415 15.7891C51.1557 15.3105 51.0557 15.0534 50.7129 14.7105C47.2343 11.2534 43.77 7.78193 40.2986 4.3105C40.1343 4.14621 39.9557 4.0105 39.8414 3.9105C28.2129 15.5391 16.6415 27.1176 5.01288 38.7462ZM71.4057 74.2748C50.2772 74.2748 29.2129 74.2748 8.17002 74.2748C8.17002 75.1319 8.17002 75.9319 8.17002 76.7176C29.2772 76.7176 50.3272 76.7176 71.4057 76.7176C71.4057 75.8962 71.4057 75.1105 71.4057 74.2748ZM74.7272 38.7462C73.0772 37.1034 71.5843 35.6176 70.0914 34.1391C70.02 34.0676 69.9557 33.9605 69.8629 33.9248C69.7129 33.8605 69.5272 33.7676 69.3915 33.8105C68.5057 34.0962 67.6272 34.4105 66.7057 34.7319C66.8415 34.8748 66.9415 34.9962 67.0486 35.1034C68.1843 36.2391 69.32 37.3819 70.4629 38.5034C70.5986 38.6319 70.82 38.7319 71.0057 38.7391C72.17 38.7605 73.3272 38.7462 74.7272 38.7462ZM36.2843 56.5105C36.8486 58.1034 38.4129 59.0962 40.0057 58.9891C41.2272 58.9105 42.9986 57.9391 43.1986 56.5105C40.9129 56.5105 38.6343 56.5105 36.2843 56.5105ZM28.3629 41.3176C26.8629 41.2819 25.7915 42.6248 25.8415 43.8819C25.8915 45.2319 26.9415 46.2676 28.3629 46.2962C28.3629 44.6534 28.3629 43.0105 28.3629 41.3176ZM51.1986 46.3176C52.6986 46.2248 53.7057 45.1676 53.7129 43.7819C53.72 42.7391 52.7486 41.2605 51.1986 41.3319C51.1986 42.9676 51.1986 44.6105 51.1986 46.3176Z" fill="#EDBED9"/>
<path d="M57.877 23.1761C58.5127 22.5833 59.0841 22.0475 59.7055 21.469C60.4698 22.2833 61.2698 23.1475 62.1912 24.1333C64.1341 20.6404 65.9555 17.369 67.8055 14.0547C68.5627 14.4975 69.2627 14.8975 69.9984 15.3261C68.9555 17.2047 67.9484 19.019 66.9412 20.8404C65.8912 22.7333 64.8484 24.6261 63.7912 26.5047C63.2127 27.5261 62.3698 27.6547 61.5341 26.8333C60.3198 25.6333 59.1198 24.4118 57.877 23.1761Z" fill="#EDBED9"/>
</svg>
