<svg width="61" height="60" viewBox="0 0 61 60" fill="none" xmlns="http://www.w3.org/2000/svg">
<rect width="60" height="60" transform="translate(0.486816)" fill="black"/>
<path d="M50.4868 17.8479C49.0163 18.5016 47.4338 18.9425 45.7733 19.1398C47.4687 18.1248 48.7687 16.5171 49.3817 14.5992C47.796 15.5403 46.0405 16.2232 44.1705 16.5918C42.6741 14.9971 40.541 14 38.1806 14C33.649 14 29.9749 17.6742 29.9749 22.2066C29.9749 22.8488 30.0471 23.4749 30.1876 24.0765C23.3671 23.7339 17.3195 20.4673 13.2719 15.5021C12.5655 16.7136 12.1611 18.1232 12.1611 19.6286C12.1611 22.4753 13.6096 24.9876 15.8117 26.4588C14.4671 26.4158 13.2012 26.0464 12.0945 25.4317C12.0937 25.4658 12.0937 25.5007 12.0937 25.5356C12.0937 29.511 14.9226 32.8271 18.6771 33.5822C17.9886 33.769 17.2635 33.8697 16.5149 33.8697C15.9855 33.8697 15.4715 33.8185 14.9705 33.7219C16.0155 36.982 19.0458 39.3553 22.6363 39.4211C19.8277 41.6223 16.29 42.9345 12.4445 42.9345C11.7827 42.9345 11.1291 42.8955 10.4868 42.8192C14.1196 45.1487 18.4327 46.5063 23.0666 46.5063C38.1619 46.5063 46.4156 34.002 46.4156 23.1574C46.4156 22.8017 46.4083 22.4469 46.3929 22.0945C47.9957 20.9399 49.3874 19.4938 50.4868 17.8479Z" fill="white"/>
</svg>
