<svg width="61" height="60" viewBox="0 0 61 60" fill="none" xmlns="http://www.w3.org/2000/svg">
<g clip-path="url(#clip0_205_1266)">
<path d="M60 0H0V60H60V0Z" fill="white"/>
<path d="M50 17.8479C48.5295 18.5016 46.947 18.9425 45.2865 19.1398C46.9819 18.1248 48.2819 16.5171 48.8949 14.5992C47.3092 15.5403 45.5537 16.2232 43.6837 16.5918C42.1873 14.9971 40.0542 14 37.6938 14C33.1622 14 29.4881 17.6742 29.4881 22.2066C29.4881 22.8488 29.5603 23.4749 29.7008 24.0765C22.8803 23.7339 16.8327 20.4673 12.7851 15.5021C12.0787 16.7136 11.6743 18.1232 11.6743 19.6286C11.6743 22.4753 13.1228 24.9876 15.3249 26.4588C13.9803 26.4158 12.7144 26.0464 11.6077 25.4317C11.6069 25.4658 11.6069 25.5007 11.6069 25.5356C11.6069 29.511 14.4358 32.8271 18.1903 33.5822C17.5018 33.769 16.7767 33.8697 16.0281 33.8697C15.4987 33.8697 14.9847 33.8185 14.4837 33.7219C15.5287 36.982 18.559 39.3553 22.1495 39.4211C19.3409 41.6223 15.8032 42.9345 11.9577 42.9345C11.2959 42.9345 10.6423 42.8955 10 42.8192C13.6328 45.1487 17.9459 46.5063 22.5798 46.5063C37.6751 46.5063 45.9288 34.002 45.9288 23.1574C45.9288 22.8017 45.9215 22.4469 45.9061 22.0945C47.5089 20.9399 48.9006 19.4938 50 17.8479Z" fill="black"/>
</g>
<defs>
<clipPath id="clip0_205_1266">
<rect width="61" height="60" fill="white"/>
</clipPath>
</defs>
</svg>
