<svg width="60" height="60" viewBox="0 0 60 60" fill="none" xmlns="http://www.w3.org/2000/svg">
<g clip-path="url(#clip0_206_1254)">
<path d="M60 0H0V60H60V0Z" fill="white"/>
<path d="M33.2123 35.8847C32.5272 35.6972 31.9033 35.3294 31.404 34.8186C30.9047 34.3078 30.5478 33.6722 30.3696 32.9764C31.3806 31.7708 31.8905 30.215 31.792 28.6363C31.6935 27.0576 30.9943 25.5792 29.8415 24.5122C28.6886 23.4452 27.1721 22.8727 25.6111 22.9154C24.05 22.9581 22.5662 23.6125 21.4719 24.7409L15.7864 30.5C14.6555 31.6456 14.0202 33.1993 14.0202 34.8193C14.0202 36.4394 14.6555 37.9931 15.7864 39.1386C16.9173 40.2842 18.4512 40.9277 20.0505 40.9277C21.6498 40.9277 23.1837 40.2842 24.3146 39.1386L24.4283 39.0234C25.2119 40.1361 26.1725 41.1092 27.271 41.903L27.1573 42.0181C25.2725 43.9274 22.7161 45 20.0505 45C17.3849 45 14.8286 43.9274 12.9437 42.0181C11.0589 40.1089 10 37.5194 10 34.8193C10 32.1192 11.0589 29.5297 12.9437 27.6205L18.6291 21.8614C20.465 19.9025 22.9938 18.7626 25.6594 18.6924C28.325 18.6222 30.9089 19.6274 32.8427 21.4871C34.7766 23.3467 35.9019 25.9083 35.9712 28.6084C36.0405 31.3085 35.0481 33.9258 33.2123 35.8847ZM26.7877 25.1153C27.4728 25.3028 28.0967 25.6706 28.596 26.1814C29.0953 26.6922 29.4522 27.3278 29.6304 28.0236C28.6194 29.2292 28.1095 30.785 28.208 32.3637C28.3065 33.9424 29.0057 35.4208 30.1585 36.4878C31.3114 37.5548 32.8279 38.1273 34.3889 38.0846C35.95 38.0419 37.4338 37.3875 38.5281 36.2591L44.2136 30.5C45.3445 29.3544 45.9798 27.8007 45.9798 26.1807C45.9798 24.5606 45.3445 23.0069 44.2136 21.8614C43.0827 20.7158 41.5488 20.0723 39.9495 20.0723C38.3502 20.0723 36.8163 20.7158 35.6854 21.8614L35.5717 21.9766C34.7881 20.8639 33.8275 19.8908 32.729 19.097L32.8427 18.9819C34.7275 17.0726 37.2839 16 39.9495 16C42.6151 16 45.1714 17.0726 47.0563 18.9819C48.9411 20.8911 50 23.4806 50 26.1807C50 28.8808 48.9411 31.4703 47.0563 33.3795L41.3708 39.1386C40.4618 40.1086 39.3731 40.8876 38.1669 41.4314C36.9606 41.9751 35.6605 42.2729 34.3406 42.3076C31.675 42.3778 29.0911 41.3726 27.1573 39.5129C25.2234 37.6533 24.0981 35.0917 24.0288 32.3916C23.9595 29.6915 24.9519 27.0742 26.7877 25.1153Z" fill="black"/>
</g>
<defs>
<clipPath id="clip0_206_1254">
<rect width="60" height="60" fill="white"/>
</clipPath>
</defs>
</svg>
