<svg width="61" height="60" viewBox="0 0 61 60" fill="none" xmlns="http://www.w3.org/2000/svg">
<rect width="60" height="60" transform="translate(0.486816)" fill="black"/>
<path d="M38 22.9522H32.551V18.8007C32.551 17.2416 33.4405 16.8781 34.067 16.8781C34.6921 16.8781 37.9123 16.8781 37.9123 16.8781V10.024L32.6165 10C26.7377 10 25.3999 15.112 25.3999 18.3834V22.9522H22V30.0149H25.3999C25.3999 39.0789 25.3999 50 25.3999 50H32.551C32.551 50 32.551 38.9712 32.551 30.0149H37.3763L38 22.9522Z" fill="white"/>
</svg>
